Indicadores no R: informações de mortalidade e projeções - SIM
…
tabela2<-merge(tabela2,table2,by=c("ano"))

tabela2$part<-tabela2$obt/tabela2$obt_sem_na
tabela2$obt_ajust<-round(tabela2$part*tabela2$obt_total)

#  arredondou para todos
tabela2 %>%
  filter(!is.na(faixa_idade))%>%
  group_by(ano) %>%
  summarise(
    obt_conf = sum(obt_ajust))

## # A tibble: 22 × 2
##      ano obt_conf
##    <dbl>    <dbl>
##  1  2000     8575
##  2  2001     8759
##  3  2002     9067
##  4  2003     9096
##  5  2004     9612
##  6  2005     9425
##  7  2006     9512
##  8  2007     9866
##  9  2008    10286
## 10  2009    10461
## # ℹ 12 more rows
…
