Indicadores no R: informações de nascimento e projeções - SINASC
…
tabela2$part<-tabela2$nasc/tabela2$nasc_sem_na
tabela2$nasc_ajust<-round(tabela2$part*tabela2$nasc_total)

# quase arredondou para todos
tabela2 %>%
  filter(!is.na(faixa_idade_mae_15_49))%>%
  group_by(ano) %>%
  summarise(
    nasc_conf = sum(nasc_ajust))

## # A tibble: 21 × 2
##      ano nasc_conf
##    <dbl>     <dbl>
##  1  2000     47990
##  2  2001     46892
##  3  2002     45799
##  4  2003     46097
##  5  2004     45592
##  6  2005     45917
##  7  2006     45153
##  8  2007     44098
##  9  2008     44173
## 10  2009     43931
## # ℹ 11 more rows
…
